%YAML 1.1
%TAG !u! tag:unity3d.com,2011:
--- !u!114 &11400000
MonoBehaviour:
  m_ObjectHideFlags: 0
  m_PrefabParentObject: {fileID: 0}
  m_PrefabInternal: {fileID: 0}
  m_GameObject: {fileID: 0}
  m_Enabled: 1
  m_EditorHideFlags: 0
  m_Script: {fileID: 1451299648, guid: 510e6f1b462e2c54a91d13c52a5f2315, type: 3}
  m_Name: LifeScene 3DV
  m_EditorClassIdentifier: 
  simFile: LifeScene 3DV.sim
  simFolder: Assets/LIFEDeploy
