%YAML 1.1
%TAG !u! tag:unity3d.com,2011:
--- !u!114 &11400000
MonoBehaviour:
  m_ObjectHideFlags: 0
  m_PrefabParentObject: {fileID: 0}
  m_PrefabInternal: {fileID: 0}
  m_GameObject: {fileID: 0}
  m_Enabled: 1
  m_EditorHideFlags: 0
  m_Script: {fileID: 1227330239, guid: 9fa2ecd1ff2ad394281dd3bf72c5b76e, type: 3}
  m_Name: Musicien1
  m_EditorClassIdentifier: 
  _dataSerializer:
    _serializedData: <scriptableobject version="1.3" type="RAIN.BehaviorTrees.BTAsset"><fields><field
      value="&lt;behaviortree version=&quot;1.1&quot; repeatuntil=&quot;&quot; name=&quot;Musicien1&quot;
      debugbreak=&quot;False&quot;&gt;&lt;selector usepriorities=&quot;False&quot;
      repeatuntil=&quot;&quot; name=&quot;selector&quot; debugbreak=&quot;False&quot;&gt;&lt;constraint
      repeatuntil=&quot;&quot; priority=&quot;&quot; name=&quot;IsFragmentComplete&quot;
      debugbreak=&quot;False&quot; constraint=&quot;isFragmentComplete==true&quot;&gt;&lt;sequencer
      usepriorities=&quot;False&quot; repeatuntil=&quot;&quot; name=&quot;sequencer&quot;
      debugbreak=&quot;False&quot;&gt;&lt;action repeatuntil=&quot;&quot; priority=&quot;&quot;
      parametervalues=&quot;RUVFRUU=&quot; parameters=&quot;dG9QcmludEV4cA==&quot;
      namespace=&quot;&quot; name=&quot;action&quot; debugbreak=&quot;False&quot;
      classname=&quot;AiPrint&quot; /&gt;&lt;expression returnvalue=&quot;success&quot;
      repeatuntil=&quot;&quot; priority=&quot;&quot; name=&quot;isDancing = true&quot;
      expression=&quot;isDancing=true&quot; debugbreak=&quot;False&quot; /&gt;&lt;action
      repeatuntil=&quot;&quot; priority=&quot;&quot; parametervalues=&quot;NAAxNQ==&quot;
      parameters=&quot;bWluUmFuZ2VFeHAAbWF4UmFuZ2VFeHA=&quot; namespace=&quot;&quot;
      name=&quot;Wait&quot; debugbreak=&quot;False&quot; classname=&quot;BetterTimer&quot;
      /&gt;&lt;animate repeatuntil=&quot;&quot; priority=&quot;&quot; name=&quot;animate&quot;
      debugbreak=&quot;False&quot; animationstate=&quot;&quot; /&gt;&lt;action repeatuntil=&quot;&quot;
      priority=&quot;&quot; parametervalues=&quot;QUFBQUE=&quot; parameters=&quot;dG9QcmludEV4cA==&quot;
      namespace=&quot;&quot; name=&quot;action&quot; debugbreak=&quot;False&quot;
      classname=&quot;AiPrint&quot; /&gt;&lt;/sequencer&gt;&lt;/constraint&gt;&lt;constraint
      repeatuntil=&quot;&quot; priority=&quot;&quot; name=&quot;constraint&quot; debugbreak=&quot;False&quot;
      constraint=&quot;&quot;&gt;&lt;action repeatuntil=&quot;&quot; parametervalues=&quot;&quot;
      parameters=&quot;&quot; namespace=&quot;&quot; name=&quot;Emit Sound&quot; debugbreak=&quot;False&quot;
      classname=&quot;EmitSound&quot; /&gt;&lt;/constraint&gt;&lt;selector usepriorities=&quot;False&quot;
      repeatuntil=&quot;&quot; priority=&quot;&quot; name=&quot;selector&quot; debugbreak=&quot;False&quot;&gt;&lt;constraint
      repeatuntil=&quot;&quot; priority=&quot;&quot; name=&quot;PlayerInRange&quot;
      debugbreak=&quot;False&quot; constraint=&quot;playerIsInRange==true&quot;&gt;&lt;move
      turnspeed=&quot;1&quot; repeatuntil=&quot;&quot; name=&quot;lookAtTarget&quot;
      movetarget=&quot;&quot; movespeed=&quot;&quot; facetarget=&quot;lookAtTarget&quot;
      debugbreak=&quot;False&quot; closeenoughdistance=&quot;&quot; closeenoughangle=&quot;10&quot;
      /&gt;&lt;/constraint&gt;&lt;constraint repeatuntil=&quot;&quot; priority=&quot;&quot;
      name=&quot;PlayerNotInRange&quot; debugbreak=&quot;False&quot; constraint=&quot;playerIsInRange==false&quot;&gt;&lt;sequencer
      usepriorities=&quot;False&quot; repeatuntil=&quot;&quot; name=&quot;sequencer&quot;
      debugbreak=&quot;False&quot;&gt;&lt;action repeatuntil=&quot;&quot; priority=&quot;&quot;
      parametervalues=&quot;&quot; parameters=&quot;&quot; namespace=&quot;&quot;
      name=&quot;SelectMusicianTarget&quot; debugbreak=&quot;False&quot; classname=&quot;ProtoSelectTarget&quot;
      /&gt;&lt;move turnspeed=&quot;&quot; repeatuntil=&quot;&quot; priority=&quot;&quot;
      name=&quot;move&quot; movetarget=&quot;target&quot; movespeed=&quot;&quot; facetarget=&quot;target&quot;
      debugbreak=&quot;False&quot; closeenoughdistance=&quot;0.5&quot; closeenoughangle=&quot;10&quot;
      /&gt;&lt;action repeatuntil=&quot;&quot; priority=&quot;&quot; parametervalues=&quot;NQAxMA==&quot;
      parameters=&quot;bWluUmFuZ2VFeHAAbWF4UmFuZ2VFeHA=&quot; namespace=&quot;&quot;
      name=&quot;Wait&quot; debugbreak=&quot;False&quot; classname=&quot;BetterTimer&quot;
      /&gt;&lt;/sequencer&gt;&lt;/constraint&gt;&lt;/selector&gt;&lt;/selector&gt;&lt;/behaviortree&gt;"
      type="System.String" id="treeData" /><field type="System.Array" id="treeBindings"
      elementtype="System.String" /></fields><references /></scriptableobject>
    _serializedGameObjects: []
    _serializedCustomData: []
