%YAML 1.1
%TAG !u! tag:unity3d.com,2011:
--- !u!114 &11400000
MonoBehaviour:
  m_ObjectHideFlags: 0
  m_PrefabParentObject: {fileID: 0}
  m_PrefabInternal: {fileID: 0}
  m_GameObject: {fileID: 0}
  m_Enabled: 1
  m_EditorHideFlags: 0
  m_Script: {fileID: 1227330239, guid: 9fa2ecd1ff2ad394281dd3bf72c5b76e, type: 3}
  m_Name: Passant
  m_EditorClassIdentifier: 
  _dataSerializer:
    _serializedData: "<scriptableobject version=\"1.3\" type=\"RAIN.BehaviorTrees.BTAsset\"><fields><field
      value=\"&lt;behaviortree version=&quot;1.1&quot; repeatuntil=&quot;&quot; name=&quot;Passant&quot;
      debugbreak=&quot;False&quot;&gt;&lt;selector usepriorities=&quot;False&quot;
      repeatuntil=&quot;&quot; name=&quot;selector&quot; debugbreak=&quot;False&quot;&gt;&lt;sequencer
      usepriorities=&quot;False&quot; repeatuntil=&quot;&quot; priority=&quot;&quot;
      name=&quot;sequencer&quot; debugbreak=&quot;False&quot;&gt;&lt;expression returnvalue=&quot;evaluate&quot;
      repeatuntil=&quot;&quot; priority=&quot;&quot; name=&quot;attention diff\xE9rente
      de 0&quot; expression=&quot;attention&amp;gt;0&quot; debugbreak=&quot;False&quot;
      /&gt;&lt;selector usepriorities=&quot;False&quot; repeatuntil=&quot;&quot; priority=&quot;&quot;
      name=&quot;selector&quot; debugbreak=&quot;False&quot;&gt;&lt;sequencer usepriorities=&quot;False&quot;
      repeatuntil=&quot;&quot; priority=&quot;&quot; name=&quot;sequencer&quot; debugbreak=&quot;False&quot;&gt;&lt;expression
      returnvalue=&quot;evaluate&quot; repeatuntil=&quot;&quot; priority=&quot;&quot;
      name=&quot;ai-je une sc\xE8ne de vie ?&quot; expression=&quot;inLifeScene==true&quot;
      debugbreak=&quot;False&quot; /&gt;&lt;selector usepriorities=&quot;False&quot;
      repeatuntil=&quot;&quot; priority=&quot;&quot; name=&quot;selector&quot; debugbreak=&quot;False&quot;&gt;&lt;sequencer
      usepriorities=&quot;False&quot; repeatuntil=&quot;&quot; priority=&quot;&quot;
      name=&quot;sequencer&quot; debugbreak=&quot;False&quot;&gt;&lt;action repeatuntil=&quot;&quot;
      priority=&quot;&quot; parametervalues=&quot;&quot; parameters=&quot;&quot; namespace=&quot;&quot;
      name=&quot;est-ce la sc\xE8ne d'un musicien ?&quot; debugbreak=&quot;False&quot;
      classname=&quot;IfMusicien&quot; /&gt;&lt;selector usepriorities=&quot;False&quot;
      repeatuntil=&quot;&quot; priority=&quot;&quot; name=&quot;selector&quot; debugbreak=&quot;False&quot;&gt;&lt;sequencer
      usepriorities=&quot;False&quot; repeatuntil=&quot;&quot; priority=&quot;&quot;
      name=&quot;sequencer&quot; debugbreak=&quot;False&quot;&gt;&lt;action repeatuntil=&quot;&quot;
      priority=&quot;&quot; parametervalues=&quot;&quot; parameters=&quot;&quot; namespace=&quot;&quot;
      name=&quot;me rendre \xE0 ma place&quot; debugbreak=&quot;False&quot; classname=&quot;PassantGoToSpot&quot;
      /&gt;&lt;action repeatuntil=&quot;&quot; priority=&quot;&quot; parametervalues=&quot;&quot;
      parameters=&quot;&quot; namespace=&quot;&quot; name=&quot;le musicien dance-t-il
      ?&quot; debugbreak=&quot;False&quot; classname=&quot;IsMusicianDancing&quot;
      /&gt;&lt;selector usepriorities=&quot;False&quot; repeatuntil=&quot;&quot; priority=&quot;&quot;
      name=&quot;selector&quot; debugbreak=&quot;False&quot;&gt;&lt;expression returnvalue=&quot;evaluate&quot;
      repeatuntil=&quot;&quot; priority=&quot;&quot; name=&quot;est-ce que je danse
      d\xE9j\xE0 ?&quot; expression=&quot;isDancing==true&quot; debugbreak=&quot;False&quot;
      /&gt;&lt;action repeatuntil=&quot;&quot; priority=&quot;&quot; parametervalues=&quot;&quot;
      parameters=&quot;&quot; namespace=&quot;&quot; name=&quot;d\xE9but de ma danse&quot;
      debugbreak=&quot;False&quot; classname=&quot;StartDance&quot; /&gt;&lt;/selector&gt;&lt;/sequencer&gt;&lt;sequencer
      usepriorities=&quot;False&quot; repeatuntil=&quot;&quot; priority=&quot;&quot;
      name=&quot;sequencer&quot; debugbreak=&quot;False&quot;&gt;&lt;expression returnvalue=&quot;evaluate&quot;
      repeatuntil=&quot;&quot; priority=&quot;&quot; name=&quot;est-ce que je danse
      d\xE9j\xE0 ?&quot; expression=&quot;isDancing==true&quot; debugbreak=&quot;False&quot;
      /&gt;&lt;action repeatuntil=&quot;&quot; priority=&quot;&quot; parametervalues=&quot;&quot;
      parameters=&quot;&quot; namespace=&quot;&quot; name=&quot;je ne dance pas&quot;
      debugbreak=&quot;False&quot; classname=&quot;StopDance&quot; /&gt;&lt;expression
      returnvalue=&quot;success&quot; repeatuntil=&quot;&quot; priority=&quot;&quot;
      name=&quot;perte de 5 points d'attention&quot; expression=&quot;attention=attention-5&quot;
      debugbreak=&quot;False&quot; /&gt;&lt;expression returnvalue=&quot;evaluate&quot;
      repeatuntil=&quot;&quot; priority=&quot;&quot; name=&quot;si attention == 0&quot;
      expression=&quot;attention==0&quot; debugbreak=&quot;False&quot; /&gt;&lt;action
      repeatuntil=&quot;&quot; priority=&quot;&quot; parametervalues=&quot;&quot;
      parameters=&quot;&quot; namespace=&quot;&quot; name=&quot;quitte la sc\xE8ne&quot;
      debugbreak=&quot;False&quot; classname=&quot;PassantLeaveScene&quot; /&gt;&lt;expression
      returnvalue=&quot;success&quot; repeatuntil=&quot;&quot; priority=&quot;&quot;
      name=&quot;Je ne suis plus dans la sc\xE8ne&quot; expression=&quot;inLifeScene=false&quot;
      debugbreak=&quot;False&quot; /&gt;&lt;action repeatuntil=&quot;&quot; priority=&quot;&quot;
      parametervalues=&quot;&quot; parameters=&quot;&quot; namespace=&quot;&quot;
      name=&quot;selectTarget&quot; debugbreak=&quot;False&quot; classname=&quot;PassantSelectTarget&quot;
      /&gt;&lt;/sequencer&gt;&lt;expression returnvalue=&quot;success&quot; repeatuntil=&quot;&quot;
      priority=&quot;&quot; name=&quot;renvoie toujours vrai&quot; expression=&quot;&quot;
      debugbreak=&quot;False&quot; /&gt;&lt;/selector&gt;&lt;/sequencer&gt;&lt;sequencer
      usepriorities=&quot;False&quot; repeatuntil=&quot;&quot; priority=&quot;&quot;
      name=&quot;sequencer&quot; debugbreak=&quot;False&quot;&gt;&lt;action repeatuntil=&quot;&quot;
      priority=&quot;&quot; parametervalues=&quot;&quot; parameters=&quot;&quot; namespace=&quot;&quot;
      name=&quot;est-ce la sc\xE8ne d'un guide ?&quot; debugbreak=&quot;False&quot;
      classname=&quot;IfGuide&quot; /&gt;&lt;selector usepriorities=&quot;False&quot;
      repeatuntil=&quot;&quot; priority=&quot;&quot; name=&quot;selector&quot; debugbreak=&quot;False&quot;&gt;&lt;sequencer
      usepriorities=&quot;False&quot; repeatuntil=&quot;&quot; priority=&quot;&quot;
      name=&quot;sequencer&quot; debugbreak=&quot;False&quot;&gt;&lt;action repeatuntil=&quot;&quot;
      priority=&quot;&quot; parametervalues=&quot;&quot; parameters=&quot;&quot; namespace=&quot;&quot;
      name=&quot;mon guide est-il sur un point de vue ?&quot; debugbreak=&quot;False&quot;
      classname=&quot;IfGuideIsOnPoV&quot; /&gt;&lt;selector usepriorities=&quot;False&quot;
      repeatuntil=&quot;&quot; priority=&quot;&quot; name=&quot;selector&quot; debugbreak=&quot;False&quot;&gt;&lt;sequencer
      usepriorities=&quot;False&quot; repeatuntil=&quot;&quot; priority=&quot;&quot;
      name=&quot;sequencer&quot; debugbreak=&quot;False&quot;&gt;&lt;expression returnvalue=&quot;evaluate&quot;
      repeatuntil=&quot;&quot; priority=&quot;&quot; name=&quot;povTimerHasEnded==true&quot;
      expression=&quot;povTimerHasEnded==true&quot; debugbreak=&quot;False&quot; /&gt;&lt;action
      repeatuntil=&quot;&quot; priority=&quot;&quot; parametervalues=&quot;&quot;
      parameters=&quot;&quot; namespace=&quot;&quot; name=&quot;j'\xE9mets mon son&quot;
      debugbreak=&quot;False&quot; classname=&quot;EmitSound&quot; /&gt;&lt;expression
      returnvalue=&quot;success&quot; repeatuntil=&quot;&quot; priority=&quot;&quot;
      name=&quot;perte de 5 points d'attention&quot; expression=&quot;attention=attention-5&quot;
      debugbreak=&quot;False&quot; /&gt;&lt;action repeatuntil=&quot;&quot; priority=&quot;&quot;
      parametervalues=&quot;&quot; parameters=&quot;&quot; namespace=&quot;&quot;
      name=&quot;quitte la sc\xE8ne&quot; debugbreak=&quot;False&quot; classname=&quot;PassantLeaveScene&quot;
      /&gt;&lt;expression returnvalue=&quot;success&quot; repeatuntil=&quot;&quot;
      priority=&quot;&quot; name=&quot;inLifeScene=false&quot; expression=&quot;inLifeScene=false&quot;
      debugbreak=&quot;False&quot; /&gt;&lt;action repeatuntil=&quot;&quot; priority=&quot;&quot;
      parametervalues=&quot;&quot; parameters=&quot;&quot; namespace=&quot;&quot;
      name=&quot;selectTarget&quot; debugbreak=&quot;False&quot; classname=&quot;PassantSelectTarget&quot;
      /&gt;&lt;expression returnvalue=&quot;success&quot; repeatuntil=&quot;&quot;
      priority=&quot;&quot; name=&quot;povTimerHasEnded=false&quot; expression=&quot;povTimerHasEnded=false&quot;
      debugbreak=&quot;False&quot; /&gt;&lt;/sequencer&gt;&lt;action repeatuntil=&quot;&quot;
      priority=&quot;&quot; parametervalues=&quot;&quot; parameters=&quot;dG9QcmludEV4cA==&quot;
      namespace=&quot;&quot; name=&quot;je le regarde&quot; debugbreak=&quot;False&quot;
      classname=&quot;AiPrint&quot; /&gt;&lt;/selector&gt;&lt;selector usepriorities=&quot;False&quot;
      repeatuntil=&quot;&quot; priority=&quot;&quot; name=&quot;selector&quot; debugbreak=&quot;False&quot;&gt;&lt;expression
      returnvalue=&quot;evaluate&quot; repeatuntil=&quot;&quot; priority=&quot;&quot;
      name=&quot;est-ce que je suis \xE0 ma place ?&quot; expression=&quot;isOnPoVSpot==true&quot;
      debugbreak=&quot;False&quot; /&gt;&lt;action repeatuntil=&quot;&quot; priority=&quot;&quot;
      parametervalues=&quot;&quot; parameters=&quot;&quot; namespace=&quot;&quot;
      name=&quot;je me rends \xE0 ma place&quot; debugbreak=&quot;False&quot; classname=&quot;PassantGoToPoVSpot&quot;
      /&gt;&lt;/selector&gt;&lt;/sequencer&gt;&lt;action repeatuntil=&quot;&quot;
      priority=&quot;&quot; parametervalues=&quot;&quot; parameters=&quot;&quot; namespace=&quot;&quot;
      name=&quot;je suis le guide&quot; debugbreak=&quot;False&quot; classname=&quot;PassantGoToSpot&quot;
      /&gt;&lt;/selector&gt;&lt;/sequencer&gt;&lt;/selector&gt;&lt;/sequencer&gt;&lt;sequencer
      usepriorities=&quot;False&quot; repeatuntil=&quot;&quot; priority=&quot;&quot;
      name=&quot;sequencer&quot; debugbreak=&quot;False&quot;&gt;&lt;expression returnvalue=&quot;evaluate&quot;
      repeatuntil=&quot;&quot; priority=&quot;&quot; name=&quot;suis-je \xE0 port\xE9e
      d'une sc\xE8ne ?&quot; expression=&quot;inRangeOfScene==true&quot; debugbreak=&quot;False&quot;
      /&gt;&lt;action repeatuntil=&quot;&quot; priority=&quot;&quot; parametervalues=&quot;&quot;
      parameters=&quot;&quot; namespace=&quot;&quot; name=&quot;y a-t-il de la place
      ?&quot; debugbreak=&quot;False&quot; classname=&quot;LookForFreeSpot&quot; /&gt;&lt;action
      repeatuntil=&quot;&quot; priority=&quot;&quot; parametervalues=&quot;&quot;
      parameters=&quot;&quot; namespace=&quot;&quot; name=&quot;s\xE9lectionner une
      sc\xE8ne et y rentrer&quot; debugbreak=&quot;False&quot; classname=&quot;PassantSelectAndEnterScene&quot;
      /&gt;&lt;expression returnvalue=&quot;success&quot; repeatuntil=&quot;&quot;
      priority=&quot;&quot; name=&quot;isOnPovSpot=false&quot; expression=&quot;isOnPovSpot=false&quot;
      debugbreak=&quot;False&quot; /&gt;&lt;expression returnvalue=&quot;success&quot;
      repeatuntil=&quot;&quot; priority=&quot;&quot; name=&quot;reset timer&quot;
      expression=&quot;waitTimerHasEnded=false&quot; debugbreak=&quot;False&quot;
      /&gt;&lt;expression returnvalue=&quot;success&quot; repeatuntil=&quot;&quot;
      priority=&quot;&quot; name=&quot;Je suis dans la sc\xE8ne&quot; expression=&quot;inLifeScene=true&quot;
      debugbreak=&quot;False&quot; /&gt;&lt;action repeatuntil=&quot;&quot; priority=&quot;&quot;
      parametervalues=&quot;&quot; parameters=&quot;&quot; namespace=&quot;&quot;
      name=&quot;stop mon move&quot; debugbreak=&quot;False&quot; classname=&quot;CustomStopMovement&quot;
      /&gt;&lt;/sequencer&gt;&lt;/selector&gt;&lt;/sequencer&gt;&lt;sequencer usepriorities=&quot;False&quot;
      repeatuntil=&quot;&quot; priority=&quot;&quot; name=&quot;d\xE9placement&quot;
      debugbreak=&quot;False&quot;&gt;&lt;selector usepriorities=&quot;False&quot;
      repeatuntil=&quot;&quot; priority=&quot;&quot; name=&quot;atteindre la cible&quot;
      debugbreak=&quot;False&quot;&gt;&lt;expression returnvalue=&quot;evaluate&quot;
      repeatuntil=&quot;&quot; priority=&quot;&quot; name=&quot;ai-je atteint la cible
      ?&quot; expression=&quot;destinationReached==true&quot; debugbreak=&quot;False&quot;
      /&gt;&lt;selector usepriorities=&quot;False&quot; repeatuntil=&quot;&quot; priority=&quot;&quot;
      name=&quot;j'y vais&quot; debugbreak=&quot;False&quot;&gt;&lt;sequencer usepriorities=&quot;False&quot;
      repeatuntil=&quot;&quot; priority=&quot;&quot; name=&quot;o\xF9 en suis-je ?&quot;
      debugbreak=&quot;False&quot;&gt;&lt;expression returnvalue=&quot;evaluate&quot;
      repeatuntil=&quot;&quot; priority=&quot;&quot; name=&quot;player in range&quot;
      expression=&quot;playerIsInRange==true&quot; debugbreak=&quot;False&quot; /&gt;&lt;action
      repeatuntil=&quot;&quot; priority=&quot;&quot; parametervalues=&quot;&quot;
      parameters=&quot;&quot; namespace=&quot;&quot; name=&quot;stop d\xE9placement&quot;
      debugbreak=&quot;False&quot; classname=&quot;CustomStopMovement&quot; /&gt;&lt;action
      repeatuntil=&quot;&quot; priority=&quot;&quot; parametervalues=&quot;&quot;
      parameters=&quot;dG9QcmludEV4cA==&quot; namespace=&quot;&quot; name=&quot;regarder
      le joueur&quot; debugbreak=&quot;False&quot; classname=&quot;AiPrint&quot; /&gt;&lt;/sequencer&gt;&lt;action
      repeatuntil=&quot;&quot; priority=&quot;&quot; parametervalues=&quot;&quot;
      parameters=&quot;&quot; namespace=&quot;&quot; name=&quot;move (renvoie toujours
      true)&quot; debugbreak=&quot;False&quot; classname=&quot;CustomMoveTo&quot;
      /&gt;&lt;/selector&gt;&lt;/selector&gt;&lt;sequencer usepriorities=&quot;False&quot;
      repeatuntil=&quot;&quot; priority=&quot;&quot; name=&quot;o\xF9 en suis-je ?&quot;
      debugbreak=&quot;False&quot;&gt;&lt;expression returnvalue=&quot;evaluate&quot;
      repeatuntil=&quot;&quot; priority=&quot;&quot; name=&quot;le timer des 5-10s
      est-il atteint ?&quot; expression=&quot;waitTimerHasEnded==true&quot; debugbreak=&quot;False&quot;
      /&gt;&lt;expression returnvalue=&quot;success&quot; repeatuntil=&quot;&quot;
      priority=&quot;&quot; name=&quot;reset timer&quot; expression=&quot;waitTimerHasEnded=false&quot;
      debugbreak=&quot;False&quot; /&gt;&lt;expression returnvalue=&quot;success&quot;
      repeatuntil=&quot;&quot; priority=&quot;&quot; name=&quot;regain de 10 points
      d'attention&quot; expression=&quot;attention=attention+10&quot; debugbreak=&quot;False&quot;
      /&gt;&lt;action repeatuntil=&quot;&quot; priority=&quot;&quot; parametervalues=&quot;&quot;
      parameters=&quot;&quot; namespace=&quot;&quot; name=&quot;d\xE9finir une nouvelle
      destination&quot; debugbreak=&quot;False&quot; classname=&quot;PassantSelectTarget&quot;
      /&gt;&lt;/sequencer&gt;&lt;/sequencer&gt;&lt;/selector&gt;&lt;/behaviortree&gt;\"
      type=\"System.String\" id=\"treeData\" /><field type=\"System.Array\" id=\"treeBindings\"
      elementtype=\"System.String\" /></fields><references /></scriptableobject>"
    _serializedGameObjects: []
    _serializedCustomData: []
